{
  "images" : [
    {
      "idiom" : "universal",
      "filename" : "star_stamp_checked_128.png",
      "scale" : "1x"
    },
    {
      "idiom" : "universal",
      "filename" : "star_stamp_checked_256.png",
      "scale" : "2x"
    },
    {
      "idiom" : "universal",
      "filename" : "star_stamp_checked_512.png",
      "scale" : "3x"
    }
  ],
  "info" : {
    "version" : 1,
    "author" : "xcode"
  }
}